<?xml version="1.0" standalone="no"?>
<!DOCTYPE svg PUBLIC "-//W3C//DTD SVG 20010904//EN"
 "http://www.w3.org/TR/2001/REC-SVG-20010904/DTD/svg10.dtd">
<svg version="1.0" xmlns="http://www.w3.org/2000/svg"
 width="200.000000pt" height="200.000000pt" viewBox="0 0 200.000000 200.000000"
 preserveAspectRatio="xMidYMid meet">

<g transform="translate(0.000000,200.000000) scale(0.100000,-0.100000)"
fill="#000000" stroke="none">
<path d="M538 1523 c-246 -186 -451 -347 -454 -357 -12 -36 28 -56 112 -56
l74 0 0 -466 c0 -302 4 -472 10 -485 10 -19 29 -19 720 -19 691 0 710 0 720
19 6 13 10 183 10 485 l0 466 74 0 c83 0 124 20 112 56 -7 22 -886 688 -913
692 -11 1 -203 -138 -465 -335z m842 -45 l363 -273 -43 -6 c-23 -3 -46 -12
-51 -20 -5 -8 -9 -222 -9 -481 l0 -468 -180 0 -180 0 0 344 c0 300 -2 347 -16
360 -13 14 -51 16 -264 16 -213 0 -251 -2 -264 -16 -14 -13 -16 -60 -16 -360
l0 -344 -180 0 -179 0 -3 474 c-2 261 -6 478 -11 482 -4 4 -26 10 -49 13 l-41
6 369 277 c203 153 374 276 380 274 6 -2 174 -127 374 -278z m-190 -928 l0
-320 -190 0 -190 0 0 320 0 320 190 0 190 0 0 -320z"/>
</g>
</svg>
